[
  {
    "id": 84352232,
    "node_id": "MDEwOlJlcG9zaXRvcnk4NDM1MjIzMg==",
    "name": "Algorithms",
    "full_name": "p0licat/Algorithms",
    "private": false,
    "owner": {
      "login": "p0licat",
      "id": 7209449,
      "node_id": "MDQ6VXNlcjcyMDk0NDk=",
      "avatar_url": "https://avatars.githubusercontent.com/u/7209449?v=4",
      "gravatar_id": "",
      "url": "https://api.github.com/users/p0licat",
      "html_url": "https://github.com/p0licat",
      "followers_url": "https://api.github.com/users/p0licat/followers",
      "following_url": "https://api.github.com/users/p0licat/following{/other_user}",
      "gists_url": "https://api.github.com/users/p0licat/gists{/gist_id}",
      "starred_url": "https://api.github.com/users/p0licat/starred{/owner}{/repo}",
      "subscriptions_url": "https://api.github.com/users/p0licat/subscriptions",
      "organizations_url": "https://api.github.com/users/p0licat/orgs",
      "repos_url": "https://api.github.com/users/p0licat/repos",
      "events_url": "https://api.github.com/users/p0licat/events{/privacy}",
      "received_events_url": "https://api.github.com/users/p0licat/received_events",
      "type": "User",
      "site_admin": false
    },
    "html_url": "https://github.com/p0licat/Algorithms",
    "description": "General algorithm implementations and solutions to problems from various platforms.",
    "fork": false,
    "url": "https://api.github.com/repos/p0licat/Algorithms",
    "forks_url": "https://api.github.com/repos/p0licat/Algorithms/forks",
    "keys_url": "https://api.github.com/repos/p0licat/Algorithms/keys{/key_id}",
    "collaborators_url": "https://api.github.com/repos/p0licat/Algorithms/collaborators{/collaborator}",
    "teams_url": "https://api.github.com/repos/p0licat/Algorithms/teams",
    "hooks_url": "https://api.github.com/repos/p0licat/Algorithms/hooks",
    "issue_events_url": "https://api.github.com/repos/p0licat/Algorithms/issues/events{/number}",
    "events_url": "https://api.github.com/repos/p0licat/Algorithms/events",
    "assignees_url": "https://api.github.com/repos/p0licat/Algorithms/assignees{/user}",
    "branches_url": "https://api.github.com/repos/p0licat/Algorithms/branches{/branch}",
    "tags_url": "https://api.github.com/repos/p0licat/Algorithms/tags",
    "blobs_url": "https://api.github.com/repos/p0licat/Algorithms/git/blobs{/sha}",
    "git_tags_url": "https://api.github.com/repos/p0licat/Algorithms/git/tags{/sha}",
    "git_refs_url": "https://api.github.com/repos/p0licat/Algorithms/git/refs{/sha}",
    "trees_url": "https://api.github.com/repos/p0licat/Algorithms/git/trees{/sha}",
    "statuses_url": "https://api.github.com/repos/p0licat/Algorithms/statuses/{sha}",
    "languages_url": "https://api.github.com/repos/p0licat/Algorithms/languages",
    "stargazers_url": "https://api.github.com/repos/p0licat/Algorithms/stargazers",
    "contributors_url": "https://api.github.com/repos/p0licat/Algorithms/contributors",
    "subscribers_url": "https://api.github.com/repos/p0licat/Algorithms/subscribers",
    "subscription_url": "https://api.github.com/repos/p0licat/Algorithms/subscription",
    "commits_url": "https://api.github.com/repos/p0licat/Algorithms/commits{/sha}",
    "git_commits_url": "https://api.github.com/repos/p0licat/Algorithms/git/commits{/sha}",
    "comments_url": "https://api.github.com/repos/p0licat/Algorithms/comments{/number}",
    "issue_comment_url": "https://api.github.com/repos/p0licat/Algorithms/issues/comments{/number}",
    "contents_url": "https://api.github.com/repos/p0licat/Algorithms/contents/{+path}",
    "compare_url": "https://api.github.com/repos/p0licat/Algorithms/compare/{base}...{head}",
    "merges_url": "https://api.github.com/repos/p0licat/Algorithms/merges",
    "archive_url": "https://api.github.com/repos/p0licat/Algorithms/{archive_format}{/ref}",
    "downloads_url": "https://api.github.com/repos/p0licat/Algorithms/downloads",
    "issues_url": "https://api.github.com/repos/p0licat/Algorithms/issues{/number}",
    "pulls_url": "https://api.github.com/repos/p0licat/Algorithms/pulls{/number}",
    "milestones_url": "https://api.github.com/repos/p0licat/Algorithms/milestones{/number}",
    "notifications_url": "https://api.github.com/repos/p0licat/Algorithms/notifications{?since,all,participating}",
    "labels_url": "https://api.github.com/repos/p0licat/Algorithms/labels{/name}",
    "releases_url": "https://api.github.com/repos/p0licat/Algorithms/releases{/id}",
    "deployments_url": "https://api.github.com/repos/p0licat/Algorithms/deployments",
    "created_at": "2017-03-08T18:17:22Z",
    "updated_at": "2017-03-08T18:59:15Z",
    "pushed_at": "2017-03-08T18:59:14Z",
    "git_url": "git://github.com/p0licat/Algorithms.git",
    "ssh_url": "git@github.com:p0licat/Algorithms.git",
    "clone_url": "https://github.com/p0licat/Algorithms.git",
    "svn_url": "https://github.com/p0licat/Algorithms",
    "homepage": null,
    "size": 36,
    "stargazers_count": 0,
    "watchers_count": 0,
    "language": "C++",
    "has_issues": true,
    "has_projects": true,
    "has_downloads": true,
    "has_wiki": true,
    "has_pages": false,
    "forks_count": 0,
    "mirror_url": null,
    "archived": false,
    "disabled": false,
    "open_issues_count": 0,
    "license": {
      "key": "mit",
      "name": "MIT License",
      "spdx_id": "MIT",
      "url": "https://api.github.com/licenses/mit",
      "node_id": "MDc6TGljZW5zZTEz"
    },
    "forks": 0,
    "open_issues": 0,
    "watchers": 0,
    "default_branch": "master"
  },
  {
    "id": 192495494,
    "node_id": "MDEwOlJlcG9zaXRvcnkxOTI0OTU0OTQ=",
    "name": "distnet",
    "full_name": "p0licat/distnet",
    "private": false,
    "owner": {
      "login": "p0licat",
      "id": 7209449,
      "node_id": "MDQ6VXNlcjcyMDk0NDk=",
      "avatar_url": "https://avatars.githubusercontent.com/u/7209449?v=4",
      "gravatar_id": "",
      "url": "https://api.github.com/users/p0licat",
      "html_url": "https://github.com/p0licat",
      "followers_url": "https://api.github.com/users/p0licat/followers",
      "following_url": "https://api.github.com/users/p0licat/following{/other_user}",
      "gists_url": "https://api.github.com/users/p0licat/gists{/gist_id}",
      "starred_url": "https://api.github.com/users/p0licat/starred{/owner}{/repo}",
      "subscriptions_url": "https://api.github.com/users/p0licat/subscriptions",
      "organizations_url": "https://api.github.com/users/p0licat/orgs",
      "repos_url": "https://api.github.com/users/p0licat/repos",
      "events_url": "https://api.github.com/users/p0licat/events{/privacy}",
      "received_events_url": "https://api.github.com/users/p0licat/received_events",
      "type": "User",
      "site_admin": false
    },
    "html_url": "https://github.com/p0licat/distnet",
    "description": "TCP connections visualizer for Linux.",
    "fork": false,
    "url": "https://api.github.com/repos/p0licat/distnet",
    "forks_url": "https://api.github.com/repos/p0licat/distnet/forks",
    "keys_url": "https://api.github.com/repos/p0licat/distnet/keys{/key_id}",
    "collaborators_url": "https://api.github.com/repos/p0licat/distnet/collaborators{/collaborator}",
    "teams_url": "https://api.github.com/repos/p0licat/distnet/teams",
    "hooks_url": "https://api.github.com/repos/p0licat/distnet/hooks",
    "issue_events_url": "https://api.github.com/repos/p0licat/distnet/issues/events{/number}",
    "events_url": "https://api.github.com/repos/p0licat/distnet/events",
    "assignees_url": "https://api.github.com/repos/p0licat/distnet/assignees{/user}",
    "branches_url": "https://api.github.com/repos/p0licat/distnet/branches{/branch}",
    "tags_url": "https://api.github.com/repos/p0licat/distnet/tags",
    "blobs_url": "https://api.github.com/repos/p0licat/distnet/git/blobs{/sha}",
    "git_tags_url": "https://api.github.com/repos/p0licat/distnet/git/tags{/sha}",
    "git_refs_url": "https://api.github.com/repos/p0licat/distnet/git/refs{/sha}",
    "trees_url": "https://api.github.com/repos/p0licat/distnet/git/trees{/sha}",
    "statuses_url": "https://api.github.com/repos/p0licat/distnet/statuses/{sha}",
    "languages_url": "https://api.github.com/repos/p0licat/distnet/languages",
    "stargazers_url": "https://api.github.com/repos/p0licat/distnet/stargazers",
    "contributors_url": "https://api.github.com/repos/p0licat/distnet/contributors",
    "subscribers_url": "https://api.github.com/repos/p0licat/distnet/subscribers",
    "subscription_url": "https://api.github.com/repos/p0licat/distnet/subscription",
    "commits_url": "https://api.github.com/repos/p0licat/distnet/commits{/sha}",
    "git_commits_url": "https://api.github.com/repos/p0licat/distnet/git/commits{/sha}",
    "comments_url": "https://api.github.com/repos/p0licat/distnet/comments{/number}",
    "issue_comment_url": "https://api.github.com/repos/p0licat/distnet/issues/comments{/number}",
    "contents_url": "https://api.github.com/repos/p0licat/distnet/contents/{+path}",
    "compare_url": "https://api.github.com/repos/p0licat/distnet/compare/{base}...{head}",
    "merges_url": "https://api.github.com/repos/p0licat/distnet/merges",
    "archive_url": "https://api.github.com/repos/p0licat/distnet/{archive_format}{/ref}",
    "downloads_url": "https://api.github.com/repos/p0licat/distnet/downloads",
    "issues_url": "https://api.github.com/repos/p0licat/distnet/issues{/number}",
    "pulls_url": "https://api.github.com/repos/p0licat/distnet/pulls{/number}",
    "milestones_url": "https://api.github.com/repos/p0licat/distnet/milestones{/number}",
    "notifications_url": "https://api.github.com/repos/p0licat/distnet/notifications{?since,all,participating}",
    "labels_url": "https://api.github.com/repos/p0licat/distnet/labels{/name}",
    "releases_url": "https://api.github.com/repos/p0licat/distnet/releases{/id}",
    "deployments_url": "https://api.github.com/repos/p0licat/distnet/deployments",
    "created_at": "2019-06-18T08:10:48Z",
    "updated_at": "2019-07-01T18:59:21Z",
    "pushed_at": "2019-07-01T18:59:19Z",
    "git_url": "git://github.com/p0licat/distnet.git",
    "ssh_url": "git@github.com:p0licat/distnet.git",
    "clone_url": "https://github.com/p0licat/distnet.git",
    "svn_url": "https://github.com/p0licat/distnet",
    "homepage": null,
    "size": 1822,
    "stargazers_count": 1,
    "watchers_count": 1,
    "language": "Python",
    "has_issues": true,
    "has_projects": true,
    "has_downloads": true,
    "has_wiki": true,
    "has_pages": false,
    "forks_count": 0,
    "mirror_url": null,
    "archived": false,
    "disabled": false,
    "open_issues_count": 9,
    "license": {
      "key": "lgpl-3.0",
      "name": "GNU Lesser General Public License v3.0",
      "spdx_id": "LGPL-3.0",
      "url": "https://api.github.com/licenses/lgpl-3.0",
      "node_id": "MDc6TGljZW5zZTEy"
    },
    "forks": 0,
    "open_issues": 9,
    "watchers": 1,
    "default_branch": "master"
  },
  {
    "id": 206112778,
    "node_id": "MDEwOlJlcG9zaXRvcnkyMDYxMTI3Nzg=",
    "name": "domain-parser",
    "full_name": "p0licat/domain-parser",
    "private": false,
    "owner": {
      "login": "p0licat",
      "id": 7209449,
      "node_id": "MDQ6VXNlcjcyMDk0NDk=",
      "avatar_url": "https://avatars.githubusercontent.com/u/7209449?v=4",
      "gravatar_id": "",
      "url": "https://api.github.com/users/p0licat",
      "html_url": "https://github.com/p0licat",
      "followers_url": "https://api.github.com/users/p0licat/followers",
      "following_url": "https://api.github.com/users/p0licat/following{/other_user}",
      "gists_url": "https://api.github.com/users/p0licat/gists{/gist_id}",
      "starred_url": "https://api.github.com/users/p0licat/starred{/owner}{/repo}",
      "subscriptions_url": "https://api.github.com/users/p0licat/subscriptions",
      "organizations_url": "https://api.github.com/users/p0licat/orgs",
      "repos_url": "https://api.github.com/users/p0licat/repos",
      "events_url": "https://api.github.com/users/p0licat/events{/privacy}",
      "received_events_url": "https://api.github.com/users/p0licat/received_events",
      "type": "User",
      "site_admin": false
    },
    "html_url": "https://github.com/p0licat/domain-parser",
    "description": "Script infrastructure for extending a domain crawler utility.",
    "fork": false,
    "url": "https://api.github.com/repos/p0licat/domain-parser",
    "forks_url": "https://api.github.com/repos/p0licat/domain-parser/forks",
    "keys_url": "https://api.github.com/repos/p0licat/domain-parser/keys{/key_id}",
    "collaborators_url": "https://api.github.com/repos/p0licat/domain-parser/collaborators{/collaborator}",
    "teams_url": "https://api.github.com/repos/p0licat/domain-parser/teams",
    "hooks_url": "https://api.github.com/repos/p0licat/domain-parser/hooks",
    "issue_events_url": "https://api.github.com/repos/p0licat/domain-parser/issues/events{/number}",
    "events_url": "https://api.github.com/repos/p0licat/domain-parser/events",
    "assignees_url": "https://api.github.com/repos/p0licat/domain-parser/assignees{/user}",
    "branches_url": "https://api.github.com/repos/p0licat/domain-parser/branches{/branch}",
    "tags_url": "https://api.github.com/repos/p0licat/domain-parser/tags",
    "blobs_url": "https://api.github.com/repos/p0licat/domain-parser/git/blobs{/sha}",
    "git_tags_url": "https://api.github.com/repos/p0licat/domain-parser/git/tags{/sha}",
    "git_refs_url": "https://api.github.com/repos/p0licat/domain-parser/git/refs{/sha}",
    "trees_url": "https://api.github.com/repos/p0licat/domain-parser/git/trees{/sha}",
    "statuses_url": "https://api.github.com/repos/p0licat/domain-parser/statuses/{sha}",
    "languages_url": "https://api.github.com/repos/p0licat/domain-parser/languages",
    "stargazers_url": "https://api.github.com/repos/p0licat/domain-parser/stargazers",
    "contributors_url": "https://api.github.com/repos/p0licat/domain-parser/contributors",
    "subscribers_url": "https://api.github.com/repos/p0licat/domain-parser/subscribers",
    "subscription_url": "https://api.github.com/repos/p0licat/domain-parser/subscription",
    "commits_url": "https://api.github.com/repos/p0licat/domain-parser/commits{/sha}",
    "git_commits_url": "https://api.github.com/repos/p0licat/domain-parser/git/commits{/sha}",
    "comments_url": "https://api.github.com/repos/p0licat/domain-parser/comments{/number}",
    "issue_comment_url": "https://api.github.com/repos/p0licat/domain-parser/issues/comments{/number}",
    "contents_url": "https://api.github.com/repos/p0licat/domain-parser/contents/{+path}",
    "compare_url": "https://api.github.com/repos/p0licat/domain-parser/compare/{base}...{head}",
    "merges_url": "https://api.github.com/repos/p0licat/domain-parser/merges",
    "archive_url": "https://api.github.com/repos/p0licat/domain-parser/{archive_format}{/ref}",
    "downloads_url": "https://api.github.com/repos/p0licat/domain-parser/downloads",
    "issues_url": "https://api.github.com/repos/p0licat/domain-parser/issues{/number}",
    "pulls_url": "https://api.github.com/repos/p0licat/domain-parser/pulls{/number}",
    "milestones_url": "https://api.github.com/repos/p0licat/domain-parser/milestones{/number}",
    "notifications_url": "https://api.github.com/repos/p0licat/domain-parser/notifications{?since,all,participating}",
    "labels_url": "https://api.github.com/repos/p0licat/domain-parser/labels{/name}",
    "releases_url": "https://api.github.com/repos/p0licat/domain-parser/releases{/id}",
    "deployments_url": "https://api.github.com/repos/p0licat/domain-parser/deployments",
    "created_at": "2019-09-03T15:39:28Z",
    "updated_at": "2019-09-09T09:38:17Z",
    "pushed_at": "2019-09-03T15:43:59Z",
    "git_url": "git://github.com/p0licat/domain-parser.git",
    "ssh_url": "git@github.com:p0licat/domain-parser.git",
    "clone_url": "https://github.com/p0licat/domain-parser.git",
    "svn_url": "https://github.com/p0licat/domain-parser",
    "homepage": null,
    "size": 16,
    "stargazers_count": 1,
    "watchers_count": 1,
    "language": "Python",
    "has_issues": true,
    "has_projects": true,
    "has_downloads": true,
    "has_wiki": true,
    "has_pages": false,
    "forks_count": 0,
    "mirror_url": null,
    "archived": false,
    "disabled": false,
    "open_issues_count": 0,
    "license": {
      "key": "gpl-3.0",
      "name": "GNU General Public License v3.0",
      "spdx_id": "GPL-3.0",
      "url": "https://api.github.com/licenses/gpl-3.0",
      "node_id": "MDc6TGljZW5zZTk="
    },
    "forks": 0,
    "open_issues": 0,
    "watchers": 1,
    "default_branch": "master"
  },
  {
    "id": 213143082,
    "node_id": "MDEwOlJlcG9zaXRvcnkyMTMxNDMwODI=",
    "name": "ibm-data-science-coursera",
    "full_name": "p0licat/ibm-data-science-coursera",
    "private": false,
    "owner": {
      "login": "p0licat",
      "id": 7209449,
      "node_id": "MDQ6VXNlcjcyMDk0NDk=",
      "avatar_url": "https://avatars.githubusercontent.com/u/7209449?v=4",
      "gravatar_id": "",
      "url": "https://api.github.com/users/p0licat",
      "html_url": "https://github.com/p0licat",
      "followers_url": "https://api.github.com/users/p0licat/followers",
      "following_url": "https://api.github.com/users/p0licat/following{/other_user}",
      "gists_url": "https://api.github.com/users/p0licat/gists{/gist_id}",
      "starred_url": "https://api.github.com/users/p0licat/starred{/owner}{/repo}",
      "subscriptions_url": "https://api.github.com/users/p0licat/subscriptions",
      "organizations_url": "https://api.github.com/users/p0licat/orgs",
      "repos_url": "https://api.github.com/users/p0licat/repos",
      "events_url": "https://api.github.com/users/p0licat/events{/privacy}",
      "received_events_url": "https://api.github.com/users/p0licat/received_events",
      "type": "User",
      "site_admin": false
    },
    "html_url": "https://github.com/p0licat/ibm-data-science-coursera",
    "description": null,
    "fork": false,
    "url": "https://api.github.com/repos/p0licat/ibm-data-science-coursera",
    "forks_url": "https://api.github.com/repos/p0licat/ibm-data-science-coursera/forks",
    "keys_url": "https://api.github.com/repos/p0licat/ibm-data-science-coursera/keys{/key_id}",
    "collaborators_url": "https://api.github.com/repos/p0licat/ibm-data-science-coursera/collaborators{/collaborator}",
    "teams_url": "https://api.github.com/repos/p0licat/ibm-data-science-coursera/teams",
    "hooks_url": "https://api.github.com/repos/p0licat/ibm-data-science-coursera/hooks",
    "issue_events_url": "https://api.github.com/repos/p0licat/ibm-data-science-coursera/issues/events{/number}",
    "events_url": "https://api.github.com/repos/p0licat/ibm-data-science-coursera/events",
    "assignees_url": "https://api.github.com/repos/p0licat/ibm-data-science-coursera/assignees{/user}",
    "branches_url": "https://api.github.com/repos/p0licat/ibm-data-science-coursera/branches{/branch}",
    "tags_url": "https://api.github.com/repos/p0licat/ibm-data-science-coursera/tags",
    "blobs_url": "https://api.github.com/repos/p0licat/ibm-data-science-coursera/git/blobs{/sha}",
    "git_tags_url": "https://api.github.com/repos/p0licat/ibm-data-science-coursera/git/tags{/sha}",
    "git_refs_url": "https://api.github.com/repos/p0licat/ibm-data-science-coursera/git/refs{/sha}",
    "trees_url": "https://api.github.com/repos/p0licat/ibm-data-science-coursera/git/trees{/sha}",
    "statuses_url": "https://api.github.com/repos/p0licat/ibm-data-science-coursera/statuses/{sha}",
    "languages_url": "https://api.github.com/repos/p0licat/ibm-data-science-coursera/languages",
    "stargazers_url": "https://api.github.com/repos/p0licat/ibm-data-science-coursera/stargazers",
    "contributors_url": "https://api.github.com/repos/p0licat/ibm-data-science-coursera/contributors",
    "subscribers_url": "https://api.github.com/repos/p0licat/ibm-data-science-coursera/subscribers",
    "subscription_url": "https://api.github.com/repos/p0licat/ibm-data-science-coursera/subscription",
    "commits_url": "https://api.github.com/repos/p0licat/ibm-data-science-coursera/commits{/sha}",
    "git_commits_url": "https://api.github.com/repos/p0licat/ibm-data-science-coursera/git/commits{/sha}",
    "comments_url": "https://api.github.com/repos/p0licat/ibm-data-science-coursera/comments{/number}",
    "issue_comment_url": "https://api.github.com/repos/p0licat/ibm-data-science-coursera/issues/comments{/number}",
    "contents_url": "https://api.github.com/repos/p0licat/ibm-data-science-coursera/contents/{+path}",
    "compare_url": "https://api.github.com/repos/p0licat/ibm-data-science-coursera/compare/{base}...{head}",
    "merges_url": "https://api.github.com/repos/p0licat/ibm-data-science-coursera/merges",
    "archive_url": "https://api.github.com/repos/p0licat/ibm-data-science-coursera/{archive_format}{/ref}",
    "downloads_url": "https://api.github.com/repos/p0licat/ibm-data-science-coursera/downloads",
    "issues_url": "https://api.github.com/repos/p0licat/ibm-data-science-coursera/issues{/number}",
    "pulls_url": "https://api.github.com/repos/p0licat/ibm-data-science-coursera/pulls{/number}",
    "milestones_url": "https://api.github.com/repos/p0licat/ibm-data-science-coursera/milestones{/number}",
    "notifications_url": "https://api.github.com/repos/p0licat/ibm-data-science-coursera/notifications{?since,all,participating}",
    "labels_url": "https://api.github.com/repos/p0licat/ibm-data-science-coursera/labels{/name}",
    "releases_url": "https://api.github.com/repos/p0licat/ibm-data-science-coursera/releases{/id}",
    "deployments_url": "https://api.github.com/repos/p0licat/ibm-data-science-coursera/deployments",
    "created_at": "2019-10-06T09:46:03Z",
    "updated_at": "2019-10-20T18:24:16Z",
    "pushed_at": "2019-10-12T16:22:36Z",
    "git_url": "git://github.com/p0licat/ibm-data-science-coursera.git",
    "ssh_url": "git@github.com:p0licat/ibm-data-science-coursera.git",
    "clone_url": "https://github.com/p0licat/ibm-data-science-coursera.git",
    "svn_url": "https://github.com/p0licat/ibm-data-science-coursera",
    "homepage": null,
    "size": 167,
    "stargazers_count": 0,
    "watchers_count": 0,
    "language": "Jupyter Notebook",
    "has_issues": true,
    "has_projects": true,
    "has_downloads": true,
    "has_wiki": true,
    "has_pages": false,
    "forks_count": 2,
    "mirror_url": null,
    "archived": false,
    "disabled": false,
    "open_issues_count": 0,
    "license": null,
    "forks": 2,
    "open_issues": 0,
    "watchers": 0,
    "default_branch": "master"
  },
  {
    "id": 206612462,
    "node_id": "MDEwOlJlcG9zaXRvcnkyMDY2MTI0NjI=",
    "name": "network-activity-monitor",
    "full_name": "p0licat/network-activity-monitor",
    "private": false,
    "owner": {
      "login": "p0licat",
      "id": 7209449,
      "node_id": "MDQ6VXNlcjcyMDk0NDk=",
      "avatar_url": "https://avatars.githubusercontent.com/u/7209449?v=4",
      "gravatar_id": "",
      "url": "https://api.github.com/users/p0licat",
      "html_url": "https://github.com/p0licat",
      "followers_url": "https://api.github.com/users/p0licat/followers",
      "following_url": "https://api.github.com/users/p0licat/following{/other_user}",
      "gists_url": "https://api.github.com/users/p0licat/gists{/gist_id}",
      "starred_url": "https://api.github.com/users/p0licat/starred{/owner}{/repo}",
      "subscriptions_url": "https://api.github.com/users/p0licat/subscriptions",
      "organizations_url": "https://api.github.com/users/p0licat/orgs",
      "repos_url": "https://api.github.com/users/p0licat/repos",
      "events_url": "https://api.github.com/users/p0licat/events{/privacy}",
      "received_events_url": "https://api.github.com/users/p0licat/received_events",
      "type": "User",
      "site_admin": false
    },
    "html_url": "https://github.com/p0licat/network-activity-monitor",
    "description": "Sends notification if packets from an address stop being sent.",
    "fork": false,
    "url": "https://api.github.com/repos/p0licat/network-activity-monitor",
    "forks_url": "https://api.github.com/repos/p0licat/network-activity-monitor/forks",
    "keys_url": "https://api.github.com/repos/p0licat/network-activity-monitor/keys{/key_id}",
    "collaborators_url": "https://api.github.com/repos/p0licat/network-activity-monitor/collaborators{/collaborator}",
    "teams_url": "https://api.github.com/repos/p0licat/network-activity-monitor/teams",
    "hooks_url": "https://api.github.com/repos/p0licat/network-activity-monitor/hooks",
    "issue_events_url": "https://api.github.com/repos/p0licat/network-activity-monitor/issues/events{/number}",
    "events_url": "https://api.github.com/repos/p0licat/network-activity-monitor/events",
    "assignees_url": "https://api.github.com/repos/p0licat/network-activity-monitor/assignees{/user}",
    "branches_url": "https://api.github.com/repos/p0licat/network-activity-monitor/branches{/branch}",
    "tags_url": "https://api.github.com/repos/p0licat/network-activity-monitor/tags",
    "blobs_url": "https://api.github.com/repos/p0licat/network-activity-monitor/git/blobs{/sha}",
    "git_tags_url": "https://api.github.com/repos/p0licat/network-activity-monitor/git/tags{/sha}",
    "git_refs_url": "https://api.github.com/repos/p0licat/network-activity-monitor/git/refs{/sha}",
    "trees_url": "https://api.github.com/repos/p0licat/network-activity-monitor/git/trees{/sha}",
    "statuses_url": "https://api.github.com/repos/p0licat/network-activity-monitor/statuses/{sha}",
    "languages_url": "https://api.github.com/repos/p0licat/network-activity-monitor/languages",
    "stargazers_url": "https://api.github.com/repos/p0licat/network-activity-monitor/stargazers",
    "contributors_url": "https://api.github.com/repos/p0licat/network-activity-monitor/contributors",
    "subscribers_url": "https://api.github.com/repos/p0licat/network-activity-monitor/subscribers",
    "subscription_url": "https://api.github.com/repos/p0licat/network-activity-monitor/subscription",
    "commits_url": "https://api.github.com/repos/p0licat/network-activity-monitor/commits{/sha}",
    "git_commits_url": "https://api.github.com/repos/p0licat/network-activity-monitor/git/commits{/sha}",
    "comments_url": "https://api.github.com/repos/p0licat/network-activity-monitor/comments{/number}",
    "issue_comment_url": "https://api.github.com/repos/p0licat/network-activity-monitor/issues/comments{/number}",
    "contents_url": "https://api.github.com/repos/p0licat/network-activity-monitor/contents/{+path}",
    "compare_url": "https://api.github.com/repos/p0licat/network-activity-monitor/compare/{base}...{head}",
    "merges_url": "https://api.github.com/repos/p0licat/network-activity-monitor/merges",
    "archive_url": "https://api.github.com/repos/p0licat/network-activity-monitor/{archive_format}{/ref}",
    "downloads_url": "https://api.github.com/repos/p0licat/network-activity-monitor/downloads",
    "issues_url": "https://api.github.com/repos/p0licat/network-activity-monitor/issues{/number}",
    "pulls_url": "https://api.github.com/repos/p0licat/network-activity-monitor/pulls{/number}",
    "milestones_url": "https://api.github.com/repos/p0licat/network-activity-monitor/milestones{/number}",
    "notifications_url": "https://api.github.com/repos/p0licat/network-activity-monitor/notifications{?since,all,participating}",
    "labels_url": "https://api.github.com/repos/p0licat/network-activity-monitor/labels{/name}",
    "releases_url": "https://api.github.com/repos/p0licat/network-activity-monitor/releases{/id}",
    "deployments_url": "https://api.github.com/repos/p0licat/network-activity-monitor/deployments",
    "created_at": "2019-09-05T16:44:54Z",
    "updated_at": "2019-09-09T09:38:17Z",
    "pushed_at": "2019-09-05T16:45:25Z",
    "git_url": "git://github.com/p0licat/network-activity-monitor.git",
    "ssh_url": "git@github.com:p0licat/network-activity-monitor.git",
    "clone_url": "https://github.com/p0licat/network-activity-monitor.git",
    "svn_url": "https://github.com/p0licat/network-activity-monitor",
    "homepage": null,
    "size": 5,
    "stargazers_count": 1,
    "watchers_count": 1,
    "language": "Python",
    "has_issues": true,
    "has_projects": true,
    "has_downloads": true,
    "has_wiki": true,
    "has_pages": false,
    "forks_count": 0,
    "mirror_url": null,
    "archived": false,
    "disabled": false,
    "open_issues_count": 0,
    "license": null,
    "forks": 0,
    "open_issues": 0,
    "watchers": 1,
    "default_branch": "master"
  },
  {
    "id": 249321581,
    "node_id": "MDEwOlJlcG9zaXRvcnkyNDkzMjE1ODE=",
    "name": "nucleon-graphing",
    "full_name": "p0licat/nucleon-graphing",
    "private": false,
    "owner": {
      "login": "p0licat",
      "id": 7209449,
      "node_id": "MDQ6VXNlcjcyMDk0NDk=",
      "avatar_url": "https://avatars.githubusercontent.com/u/7209449?v=4",
      "gravatar_id": "",
      "url": "https://api.github.com/users/p0licat",
      "html_url": "https://github.com/p0licat",
      "followers_url": "https://api.github.com/users/p0licat/followers",
      "following_url": "https://api.github.com/users/p0licat/following{/other_user}",
      "gists_url": "https://api.github.com/users/p0licat/gists{/gist_id}",
      "starred_url": "https://api.github.com/users/p0licat/starred{/owner}{/repo}",
      "subscriptions_url": "https://api.github.com/users/p0licat/subscriptions",
      "organizations_url": "https://api.github.com/users/p0licat/orgs",
      "repos_url": "https://api.github.com/users/p0licat/repos",
      "events_url": "https://api.github.com/users/p0licat/events{/privacy}",
      "received_events_url": "https://api.github.com/users/p0licat/received_events",
      "type": "User",
      "site_admin": false
    },
    "html_url": "https://github.com/p0licat/nucleon-graphing",
    "description": "Simulation representation and visualization experiments for quantum systems.",
    "fork": false,
    "url": "https://api.github.com/repos/p0licat/nucleon-graphing",
    "forks_url": "https://api.github.com/repos/p0licat/nucleon-graphing/forks",
    "keys_url": "https://api.github.com/repos/p0licat/nucleon-graphing/keys{/key_id}",
    "collaborators_url": "https://api.github.com/repos/p0licat/nucleon-graphing/collaborators{/collaborator}",
    "teams_url": "https://api.github.com/repos/p0licat/nucleon-graphing/teams",
    "hooks_url": "https://api.github.com/repos/p0licat/nucleon-graphing/hooks",
    "issue_events_url": "https://api.github.com/repos/p0licat/nucleon-graphing/issues/events{/number}",
    "events_url": "https://api.github.com/repos/p0licat/nucleon-graphing/events",
    "assignees_url": "https://api.github.com/repos/p0licat/nucleon-graphing/assignees{/user}",
    "branches_url": "https://api.github.com/repos/p0licat/nucleon-graphing/branches{/branch}",
    "tags_url": "https://api.github.com/repos/p0licat/nucleon-graphing/tags",
    "blobs_url": "https://api.github.com/repos/p0licat/nucleon-graphing/git/blobs{/sha}",
    "git_tags_url": "https://api.github.com/repos/p0licat/nucleon-graphing/git/tags{/sha}",
    "git_refs_url": "https://api.github.com/repos/p0licat/nucleon-graphing/git/refs{/sha}",
    "trees_url": "https://api.github.com/repos/p0licat/nucleon-graphing/git/trees{/sha}",
    "statuses_url": "https://api.github.com/repos/p0licat/nucleon-graphing/statuses/{sha}",
    "languages_url": "https://api.github.com/repos/p0licat/nucleon-graphing/languages",
    "stargazers_url": "https://api.github.com/repos/p0licat/nucleon-graphing/stargazers",
    "contributors_url": "https://api.github.com/repos/p0licat/nucleon-graphing/contributors",
    "subscribers_url": "https://api.github.com/repos/p0licat/nucleon-graphing/subscribers",
    "subscription_url": "https://api.github.com/repos/p0licat/nucleon-graphing/subscription",
    "commits_url": "https://api.github.com/repos/p0licat/nucleon-graphing/commits{/sha}",
    "git_commits_url": "https://api.github.com/repos/p0licat/nucleon-graphing/git/commits{/sha}",
    "comments_url": "https://api.github.com/repos/p0licat/nucleon-graphing/comments{/number}",
    "issue_comment_url": "https://api.github.com/repos/p0licat/nucleon-graphing/issues/comments{/number}",
    "contents_url": "https://api.github.com/repos/p0licat/nucleon-graphing/contents/{+path}",
    "compare_url": "https://api.github.com/repos/p0licat/nucleon-graphing/compare/{base}...{head}",
    "merges_url": "https://api.github.com/repos/p0licat/nucleon-graphing/merges",
    "archive_url": "https://api.github.com/repos/p0licat/nucleon-graphing/{archive_format}{/ref}",
    "downloads_url": "https://api.github.com/repos/p0licat/nucleon-graphing/downloads",
    "issues_url": "https://api.github.com/repos/p0licat/nucleon-graphing/issues{/number}",
    "pulls_url": "https://api.github.com/repos/p0licat/nucleon-graphing/pulls{/number}",
    "milestones_url": "https://api.github.com/repos/p0licat/nucleon-graphing/milestones{/number}",
    "notifications_url": "https://api.github.com/repos/p0licat/nucleon-graphing/notifications{?since,all,participating}",
    "labels_url": "https://api.github.com/repos/p0licat/nucleon-graphing/labels{/name}",
    "releases_url": "https://api.github.com/repos/p0licat/nucleon-graphing/releases{/id}",
    "deployments_url": "https://api.github.com/repos/p0licat/nucleon-graphing/deployments",
    "created_at": "2020-03-23T02:55:45Z",
    "updated_at": "2020-10-09T15:53:58Z",
    "pushed_at": "2020-03-25T21:47:28Z",
    "git_url": "git://github.com/p0licat/nucleon-graphing.git",
    "ssh_url": "git@github.com:p0licat/nucleon-graphing.git",
    "clone_url": "https://github.com/p0licat/nucleon-graphing.git",
    "svn_url": "https://github.com/p0licat/nucleon-graphing",
    "homepage": null,
    "size": 12,
    "stargazers_count": 0,
    "watchers_count": 0,
    "language": "Python",
    "has_issues": true,
    "has_projects": true,
    "has_downloads": true,
    "has_wiki": true,
    "has_pages": false,
    "forks_count": 0,
    "mirror_url": null,
    "archived": false,
    "disabled": false,
    "open_issues_count": 9,
    "license": null,
    "forks": 0,
    "open_issues": 9,
    "watchers": 0,
    "default_branch": "master"
  },
  {
    "id": 356638246,
    "node_id": "MDEwOlJlcG9zaXRvcnkzNTY2MzgyNDY=",
    "name": "qiskit-qchack",
    "full_name": "p0licat/qiskit-qchack",
    "private": false,
    "owner": {
      "login": "p0licat",
      "id": 7209449,
      "node_id": "MDQ6VXNlcjcyMDk0NDk=",
      "avatar_url": "https://avatars.githubusercontent.com/u/7209449?v=4",
      "gravatar_id": "",
      "url": "https://api.github.com/users/p0licat",
      "html_url": "https://github.com/p0licat",
      "followers_url": "https://api.github.com/users/p0licat/followers",
      "following_url": "https://api.github.com/users/p0licat/following{/other_user}",
      "gists_url": "https://api.github.com/users/p0licat/gists{/gist_id}",
      "starred_url": "https://api.github.com/users/p0licat/starred{/owner}{/repo}",
      "subscriptions_url": "https://api.github.com/users/p0licat/subscriptions",
      "organizations_url": "https://api.github.com/users/p0licat/orgs",
      "repos_url": "https://api.github.com/users/p0licat/repos",
      "events_url": "https://api.github.com/users/p0licat/events{/privacy}",
      "received_events_url": "https://api.github.com/users/p0licat/received_events",
      "type": "User",
      "site_admin": false
    },
    "html_url": "https://github.com/p0licat/qiskit-qchack",
    "description": null,
    "fork": false,
    "url": "https://api.github.com/repos/p0licat/qiskit-qchack",
    "forks_url": "https://api.github.com/repos/p0licat/qiskit-qchack/forks",
    "keys_url": "https://api.github.com/repos/p0licat/qiskit-qchack/keys{/key_id}",
    "collaborators_url": "https://api.github.com/repos/p0licat/qiskit-qchack/collaborators{/collaborator}",
    "teams_url": "https://api.github.com/repos/p0licat/qiskit-qchack/teams",
    "hooks_url": "https://api.github.com/repos/p0licat/qiskit-qchack/hooks",
    "issue_events_url": "https://api.github.com/repos/p0licat/qiskit-qchack/issues/events{/number}",
    "events_url": "https://api.github.com/repos/p0licat/qiskit-qchack/events",
    "assignees_url": "https://api.github.com/repos/p0licat/qiskit-qchack/assignees{/user}",
    "branches_url": "https://api.github.com/repos/p0licat/qiskit-qchack/branches{/branch}",
    "tags_url": "https://api.github.com/repos/p0licat/qiskit-qchack/tags",
    "blobs_url": "https://api.github.com/repos/p0licat/qiskit-qchack/git/blobs{/sha}",
    "git_tags_url": "https://api.github.com/repos/p0licat/qiskit-qchack/git/tags{/sha}",
    "git_refs_url": "https://api.github.com/repos/p0licat/qiskit-qchack/git/refs{/sha}",
    "trees_url": "https://api.github.com/repos/p0licat/qiskit-qchack/git/trees{/sha}",
    "statuses_url": "https://api.github.com/repos/p0licat/qiskit-qchack/statuses/{sha}",
    "languages_url": "https://api.github.com/repos/p0licat/qiskit-qchack/languages",
    "stargazers_url": "https://api.github.com/repos/p0licat/qiskit-qchack/stargazers",
    "contributors_url": "https://api.github.com/repos/p0licat/qiskit-qchack/contributors",
    "subscribers_url": "https://api.github.com/repos/p0licat/qiskit-qchack/subscribers",
    "subscription_url": "https://api.github.com/repos/p0licat/qiskit-qchack/subscription",
    "commits_url": "https://api.github.com/repos/p0licat/qiskit-qchack/commits{/sha}",
    "git_commits_url": "https://api.github.com/repos/p0licat/qiskit-qchack/git/commits{/sha}",
    "comments_url": "https://api.github.com/repos/p0licat/qiskit-qchack/comments{/number}",
    "issue_comment_url": "https://api.github.com/repos/p0licat/qiskit-qchack/issues/comments{/number}",
    "contents_url": "https://api.github.com/repos/p0licat/qiskit-qchack/contents/{+path}",
    "compare_url": "https://api.github.com/repos/p0licat/qiskit-qchack/compare/{base}...{head}",
    "merges_url": "https://api.github.com/repos/p0licat/qiskit-qchack/merges",
    "archive_url": "https://api.github.com/repos/p0licat/qiskit-qchack/{archive_format}{/ref}",
    "downloads_url": "https://api.github.com/repos/p0licat/qiskit-qchack/downloads",
    "issues_url": "https://api.github.com/repos/p0licat/qiskit-qchack/issues{/number}",
    "pulls_url": "https://api.github.com/repos/p0licat/qiskit-qchack/pulls{/number}",
    "milestones_url": "https://api.github.com/repos/p0licat/qiskit-qchack/milestones{/number}",
    "notifications_url": "https://api.github.com/repos/p0licat/qiskit-qchack/notifications{?since,all,participating}",
    "labels_url": "https://api.github.com/repos/p0licat/qiskit-qchack/labels{/name}",
    "releases_url": "https://api.github.com/repos/p0licat/qiskit-qchack/releases{/id}",
    "deployments_url": "https://api.github.com/repos/p0licat/qiskit-qchack/deployments",
    "created_at": "2021-04-10T16:33:51Z",
    "updated_at": "2021-04-10T21:21:45Z",
    "pushed_at": "2021-04-10T21:21:44Z",
    "git_url": "git://github.com/p0licat/qiskit-qchack.git",
    "ssh_url": "git@github.com:p0licat/qiskit-qchack.git",
    "clone_url": "https://github.com/p0licat/qiskit-qchack.git",
    "svn_url": "https://github.com/p0licat/qiskit-qchack",
    "homepage": null,
    "size": 73,
    "stargazers_count": 0,
    "watchers_count": 0,
    "language": "Jupyter Notebook",
    "has_issues": true,
    "has_projects": true,
    "has_downloads": true,
    "has_wiki": true,
    "has_pages": false,
    "forks_count": 0,
    "mirror_url": null,
    "archived": false,
    "disabled": false,
    "open_issues_count": 1,
    "license": null,
    "forks": 0,
    "open_issues": 1,
    "watchers": 0,
    "default_branch": "main"
  },
  {
    "id": 84999362,
    "node_id": "MDEwOlJlcG9zaXRvcnk4NDk5OTM2Mg==",
    "name": "rmn",
    "full_name": "p0licat/rmn",
    "private": false,
    "owner": {
      "login": "p0licat",
      "id": 7209449,
      "node_id": "MDQ6VXNlcjcyMDk0NDk=",
      "avatar_url": "https://avatars.githubusercontent.com/u/7209449?v=4",
      "gravatar_id": "",
      "url": "https://api.github.com/users/p0licat",
      "html_url": "https://github.com/p0licat",
      "followers_url": "https://api.github.com/users/p0licat/followers",
      "following_url": "https://api.github.com/users/p0licat/following{/other_user}",
      "gists_url": "https://api.github.com/users/p0licat/gists{/gist_id}",
      "starred_url": "https://api.github.com/users/p0licat/starred{/owner}{/repo}",
      "subscriptions_url": "https://api.github.com/users/p0licat/subscriptions",
      "organizations_url": "https://api.github.com/users/p0licat/orgs",
      "repos_url": "https://api.github.com/users/p0licat/repos",
      "events_url": "https://api.github.com/users/p0licat/events{/privacy}",
      "received_events_url": "https://api.github.com/users/p0licat/received_events",
      "type": "User",
      "site_admin": false
    },
    "html_url": "https://github.com/p0licat/rmn",
    "description": "Proiect in C++ pentru lucrul cu numere mari si de precizie arbitrara.",
    "fork": false,
    "url": "https://api.github.com/repos/p0licat/rmn",
    "forks_url": "https://api.github.com/repos/p0licat/rmn/forks",
    "keys_url": "https://api.github.com/repos/p0licat/rmn/keys{/key_id}",
    "collaborators_url": "https://api.github.com/repos/p0licat/rmn/collaborators{/collaborator}",
    "teams_url": "https://api.github.com/repos/p0licat/rmn/teams",
    "hooks_url": "https://api.github.com/repos/p0licat/rmn/hooks",
    "issue_events_url": "https://api.github.com/repos/p0licat/rmn/issues/events{/number}",
    "events_url": "https://api.github.com/repos/p0licat/rmn/events",
    "assignees_url": "https://api.github.com/repos/p0licat/rmn/assignees{/user}",
    "branches_url": "https://api.github.com/repos/p0licat/rmn/branches{/branch}",
    "tags_url": "https://api.github.com/repos/p0licat/rmn/tags",
    "blobs_url": "https://api.github.com/repos/p0licat/rmn/git/blobs{/sha}",
    "git_tags_url": "https://api.github.com/repos/p0licat/rmn/git/tags{/sha}",
    "git_refs_url": "https://api.github.com/repos/p0licat/rmn/git/refs{/sha}",
    "trees_url": "https://api.github.com/repos/p0licat/rmn/git/trees{/sha}",
    "statuses_url": "https://api.github.com/repos/p0licat/rmn/statuses/{sha}",
    "languages_url": "https://api.github.com/repos/p0licat/rmn/languages",
    "stargazers_url": "https://api.github.com/repos/p0licat/rmn/stargazers",
    "contributors_url": "https://api.github.com/repos/p0licat/rmn/contributors",
    "subscribers_url": "https://api.github.com/repos/p0licat/rmn/subscribers",
    "subscription_url": "https://api.github.com/repos/p0licat/rmn/subscription",
    "commits_url": "https://api.github.com/repos/p0licat/rmn/commits{/sha}",
    "git_commits_url": "https://api.github.com/repos/p0licat/rmn/git/commits{/sha}",
    "comments_url": "https://api.github.com/repos/p0licat/rmn/comments{/number}",
    "issue_comment_url": "https://api.github.com/repos/p0licat/rmn/issues/comments{/number}",
    "contents_url": "https://api.github.com/repos/p0licat/rmn/contents/{+path}",
    "compare_url": "https://api.github.com/repos/p0licat/rmn/compare/{base}...{head}",
    "merges_url": "https://api.github.com/repos/p0licat/rmn/merges",
    "archive_url": "https://api.github.com/repos/p0licat/rmn/{archive_format}{/ref}",
    "downloads_url": "https://api.github.com/repos/p0licat/rmn/downloads",
    "issues_url": "https://api.github.com/repos/p0licat/rmn/issues{/number}",
    "pulls_url": "https://api.github.com/repos/p0licat/rmn/pulls{/number}",
    "milestones_url": "https://api.github.com/repos/p0licat/rmn/milestones{/number}",
    "notifications_url": "https://api.github.com/repos/p0licat/rmn/notifications{?since,all,participating}",
    "labels_url": "https://api.github.com/repos/p0licat/rmn/labels{/name}",
    "releases_url": "https://api.github.com/repos/p0licat/rmn/releases{/id}",
    "deployments_url": "https://api.github.com/repos/p0licat/rmn/deployments",
    "created_at": "2017-03-14T21:34:10Z",
    "updated_at": "2019-06-22T15:24:15Z",
    "pushed_at": "2019-06-22T15:24:13Z",
    "git_url": "git://github.com/p0licat/rmn.git",
    "ssh_url": "git@github.com:p0licat/rmn.git",
    "clone_url": "https://github.com/p0licat/rmn.git",
    "svn_url": "https://github.com/p0licat/rmn",
    "homepage": null,
    "size": 17577,
    "stargazers_count": 1,
    "watchers_count": 1,
    "language": "C++",
    "has_issues": true,
    "has_projects": true,
    "has_downloads": true,
    "has_wiki": true,
    "has_pages": false,
    "forks_count": 0,
    "mirror_url": null,
    "archived": false,
    "disabled": false,
    "open_issues_count": 0,
    "license": {
      "key": "gpl-3.0",
      "name": "GNU General Public License v3.0",
      "spdx_id": "GPL-3.0",
      "url": "https://api.github.com/licenses/gpl-3.0",
      "node_id": "MDc6TGljZW5zZTk="
    },
    "forks": 0,
    "open_issues": 0,
    "watchers": 1,
    "default_branch": "master"
  },
  {
    "id": 256694852,
    "node_id": "MDEwOlJlcG9zaXRvcnkyNTY2OTQ4NTI=",
    "name": "temperature-logging-RaspberryPi",
    "full_name": "p0licat/temperature-logging-RaspberryPi",
    "private": false,
    "owner": {
      "login": "p0licat",
      "id": 7209449,
      "node_id": "MDQ6VXNlcjcyMDk0NDk=",
      "avatar_url": "https://avatars.githubusercontent.com/u/7209449?v=4",
      "gravatar_id": "",
      "url": "https://api.github.com/users/p0licat",
      "html_url": "https://github.com/p0licat",
      "followers_url": "https://api.github.com/users/p0licat/followers",
      "following_url": "https://api.github.com/users/p0licat/following{/other_user}",
      "gists_url": "https://api.github.com/users/p0licat/gists{/gist_id}",
      "starred_url": "https://api.github.com/users/p0licat/starred{/owner}{/repo}",
      "subscriptions_url": "https://api.github.com/users/p0licat/subscriptions",
      "organizations_url": "https://api.github.com/users/p0licat/orgs",
      "repos_url": "https://api.github.com/users/p0licat/repos",
      "events_url": "https://api.github.com/users/p0licat/events{/privacy}",
      "received_events_url": "https://api.github.com/users/p0licat/received_events",
      "type": "User",
      "site_admin": false
    },
    "html_url": "https://github.com/p0licat/temperature-logging-RaspberryPi",
    "description": "Log and visualize temperature history, using Python.",
    "fork": false,
    "url": "https://api.github.com/repos/p0licat/temperature-logging-RaspberryPi",
    "forks_url": "https://api.github.com/repos/p0licat/temperature-logging-RaspberryPi/forks",
    "keys_url": "https://api.github.com/repos/p0licat/temperature-logging-RaspberryPi/keys{/key_id}",
    "collaborators_url": "https://api.github.com/repos/p0licat/temperature-logging-RaspberryPi/collaborators{/collaborator}",
    "teams_url": "https://api.github.com/repos/p0licat/temperature-logging-RaspberryPi/teams",
    "hooks_url": "https://api.github.com/repos/p0licat/temperature-logging-RaspberryPi/hooks",
    "issue_events_url": "https://api.github.com/repos/p0licat/temperature-logging-RaspberryPi/issues/events{/number}",
    "events_url": "https://api.github.com/repos/p0licat/temperature-logging-RaspberryPi/events",
    "assignees_url": "https://api.github.com/repos/p0licat/temperature-logging-RaspberryPi/assignees{/user}",
    "branches_url": "https://api.github.com/repos/p0licat/temperature-logging-RaspberryPi/branches{/branch}",
    "tags_url": "https://api.github.com/repos/p0licat/temperature-logging-RaspberryPi/tags",
    "blobs_url": "https://api.github.com/repos/p0licat/temperature-logging-RaspberryPi/git/blobs{/sha}",
    "git_tags_url": "https://api.github.com/repos/p0licat/temperature-logging-RaspberryPi/git/tags{/sha}",
    "git_refs_url": "https://api.github.com/repos/p0licat/temperature-logging-RaspberryPi/git/refs{/sha}",
    "trees_url": "https://api.github.com/repos/p0licat/temperature-logging-RaspberryPi/git/trees{/sha}",
    "statuses_url": "https://api.github.com/repos/p0licat/temperature-logging-RaspberryPi/statuses/{sha}",
    "languages_url": "https://api.github.com/repos/p0licat/temperature-logging-RaspberryPi/languages",
    "stargazers_url": "https://api.github.com/repos/p0licat/temperature-logging-RaspberryPi/stargazers",
    "contributors_url": "https://api.github.com/repos/p0licat/temperature-logging-RaspberryPi/contributors",
    "subscribers_url": "https://api.github.com/repos/p0licat/temperature-logging-RaspberryPi/subscribers",
    "subscription_url": "https://api.github.com/repos/p0licat/temperature-logging-RaspberryPi/subscription",
    "commits_url": "https://api.github.com/repos/p0licat/temperature-logging-RaspberryPi/commits{/sha}",
    "git_commits_url": "https://api.github.com/repos/p0licat/temperature-logging-RaspberryPi/git/commits{/sha}",
    "comments_url": "https://api.github.com/repos/p0licat/temperature-logging-RaspberryPi/comments{/number}",
    "issue_comment_url": "https://api.github.com/repos/p0licat/temperature-logging-RaspberryPi/issues/comments{/number}",
    "contents_url": "https://api.github.com/repos/p0licat/temperature-logging-RaspberryPi/contents/{+path}",
    "compare_url": "https://api.github.com/repos/p0licat/temperature-logging-RaspberryPi/compare/{base}...{head}",
    "merges_url": "https://api.github.com/repos/p0licat/temperature-logging-RaspberryPi/merges",
    "archive_url": "https://api.github.com/repos/p0licat/temperature-logging-RaspberryPi/{archive_format}{/ref}",
    "downloads_url": "https://api.github.com/repos/p0licat/temperature-logging-RaspberryPi/downloads",
    "issues_url": "https://api.github.com/repos/p0licat/temperature-logging-RaspberryPi/issues{/number}",
    "pulls_url": "https://api.github.com/repos/p0licat/temperature-logging-RaspberryPi/pulls{/number}",
    "milestones_url": "https://api.github.com/repos/p0licat/temperature-logging-RaspberryPi/milestones{/number}",
    "notifications_url": "https://api.github.com/repos/p0licat/temperature-logging-RaspberryPi/notifications{?since,all,participating}",
    "labels_url": "https://api.github.com/repos/p0licat/temperature-logging-RaspberryPi/labels{/name}",
    "releases_url": "https://api.github.com/repos/p0licat/temperature-logging-RaspberryPi/releases{/id}",
    "deployments_url": "https://api.github.com/repos/p0licat/temperature-logging-RaspberryPi/deployments",
    "created_at": "2020-04-18T07:30:59Z",
    "updated_at": "2020-05-09T16:22:20Z",
    "pushed_at": "2020-05-09T16:22:18Z",
    "git_url": "git://github.com/p0licat/temperature-logging-RaspberryPi.git",
    "ssh_url": "git@github.com:p0licat/temperature-logging-RaspberryPi.git",
    "clone_url": "https://github.com/p0licat/temperature-logging-RaspberryPi.git",
    "svn_url": "https://github.com/p0licat/temperature-logging-RaspberryPi",
    "homepage": null,
    "size": 112,
    "stargazers_count": 0,
    "watchers_count": 0,
    "language": "Python",
    "has_issues": true,
    "has_projects": true,
    "has_downloads": true,
    "has_wiki": true,
    "has_pages": false,
    "forks_count": 0,
    "mirror_url": null,
    "archived": false,
    "disabled": false,
    "open_issues_count": 1,
    "license": null,
    "forks": 0,
    "open_issues": 1,
    "watchers": 0,
    "default_branch": "master"
  },
  {
    "id": 194846984,
    "node_id": "MDEwOlJlcG9zaXRvcnkxOTQ4NDY5ODQ=",
    "name": "text-analyzer-webphp",
    "full_name": "p0licat/text-analyzer-webphp",
    "private": false,
    "owner": {
      "login": "p0licat",
      "id": 7209449,
      "node_id": "MDQ6VXNlcjcyMDk0NDk=",
      "avatar_url": "https://avatars.githubusercontent.com/u/7209449?v=4",
      "gravatar_id": "",
      "url": "https://api.github.com/users/p0licat",
      "html_url": "https://github.com/p0licat",
      "followers_url": "https://api.github.com/users/p0licat/followers",
      "following_url": "https://api.github.com/users/p0licat/following{/other_user}",
      "gists_url": "https://api.github.com/users/p0licat/gists{/gist_id}",
      "starred_url": "https://api.github.com/users/p0licat/starred{/owner}{/repo}",
      "subscriptions_url": "https://api.github.com/users/p0licat/subscriptions",
      "organizations_url": "https://api.github.com/users/p0licat/orgs",
      "repos_url": "https://api.github.com/users/p0licat/repos",
      "events_url": "https://api.github.com/users/p0licat/events{/privacy}",
      "received_events_url": "https://api.github.com/users/p0licat/received_events",
      "type": "User",
      "site_admin": false
    },
    "html_url": "https://github.com/p0licat/text-analyzer-webphp",
    "description": "Simple web text file uploader and analyzer, rendering graphs.",
    "fork": false,
    "url": "https://api.github.com/repos/p0licat/text-analyzer-webphp",
    "forks_url": "https://api.github.com/repos/p0licat/text-analyzer-webphp/forks",
    "keys_url": "https://api.github.com/repos/p0licat/text-analyzer-webphp/keys{/key_id}",
    "collaborators_url": "https://api.github.com/repos/p0licat/text-analyzer-webphp/collaborators{/collaborator}",
    "teams_url": "https://api.github.com/repos/p0licat/text-analyzer-webphp/teams",
    "hooks_url": "https://api.github.com/repos/p0licat/text-analyzer-webphp/hooks",
    "issue_events_url": "https://api.github.com/repos/p0licat/text-analyzer-webphp/issues/events{/number}",
    "events_url": "https://api.github.com/repos/p0licat/text-analyzer-webphp/events",
    "assignees_url": "https://api.github.com/repos/p0licat/text-analyzer-webphp/assignees{/user}",
    "branches_url": "https://api.github.com/repos/p0licat/text-analyzer-webphp/branches{/branch}",
    "tags_url": "https://api.github.com/repos/p0licat/text-analyzer-webphp/tags",
    "blobs_url": "https://api.github.com/repos/p0licat/text-analyzer-webphp/git/blobs{/sha}",
    "git_tags_url": "https://api.github.com/repos/p0licat/text-analyzer-webphp/git/tags{/sha}",
    "git_refs_url": "https://api.github.com/repos/p0licat/text-analyzer-webphp/git/refs{/sha}",
    "trees_url": "https://api.github.com/repos/p0licat/text-analyzer-webphp/git/trees{/sha}",
    "statuses_url": "https://api.github.com/repos/p0licat/text-analyzer-webphp/statuses/{sha}",
    "languages_url": "https://api.github.com/repos/p0licat/text-analyzer-webphp/languages",
    "stargazers_url": "https://api.github.com/repos/p0licat/text-analyzer-webphp/stargazers",
    "contributors_url": "https://api.github.com/repos/p0licat/text-analyzer-webphp/contributors",
    "subscribers_url": "https://api.github.com/repos/p0licat/text-analyzer-webphp/subscribers",
    "subscription_url": "https://api.github.com/repos/p0licat/text-analyzer-webphp/subscription",
    "commits_url": "https://api.github.com/repos/p0licat/text-analyzer-webphp/commits{/sha}",
    "git_commits_url": "https://api.github.com/repos/p0licat/text-analyzer-webphp/git/commits{/sha}",
    "comments_url": "https://api.github.com/repos/p0licat/text-analyzer-webphp/comments{/number}",
    "issue_comment_url": "https://api.github.com/repos/p0licat/text-analyzer-webphp/issues/comments{/number}",
    "contents_url": "https://api.github.com/repos/p0licat/text-analyzer-webphp/contents/{+path}",
    "compare_url": "https://api.github.com/repos/p0licat/text-analyzer-webphp/compare/{base}...{head}",
    "merges_url": "https://api.github.com/repos/p0licat/text-analyzer-webphp/merges",
    "archive_url": "https://api.github.com/repos/p0licat/text-analyzer-webphp/{archive_format}{/ref}",
    "downloads_url": "https://api.github.com/repos/p0licat/text-analyzer-webphp/downloads",
    "issues_url": "https://api.github.com/repos/p0licat/text-analyzer-webphp/issues{/number}",
    "pulls_url": "https://api.github.com/repos/p0licat/text-analyzer-webphp/pulls{/number}",
    "milestones_url": "https://api.github.com/repos/p0licat/text-analyzer-webphp/milestones{/number}",
    "notifications_url": "https://api.github.com/repos/p0licat/text-analyzer-webphp/notifications{?since,all,participating}",
    "labels_url": "https://api.github.com/repos/p0licat/text-analyzer-webphp/labels{/name}",
    "releases_url": "https://api.github.com/repos/p0licat/text-analyzer-webphp/releases{/id}",
    "deployments_url": "https://api.github.com/repos/p0licat/text-analyzer-webphp/deployments",
    "created_at": "2019-07-02T11:05:26Z",
    "updated_at": "2019-07-03T22:11:35Z",
    "pushed_at": "2019-07-02T11:17:23Z",
    "git_url": "git://github.com/p0licat/text-analyzer-webphp.git",
    "ssh_url": "git@github.com:p0licat/text-analyzer-webphp.git",
    "clone_url": "https://github.com/p0licat/text-analyzer-webphp.git",
    "svn_url": "https://github.com/p0licat/text-analyzer-webphp",
    "homepage": null,
    "size": 1942,
    "stargazers_count": 1,
    "watchers_count": 1,
    "language": "CSS",
    "has_issues": true,
    "has_projects": true,
    "has_downloads": true,
    "has_wiki": true,
    "has_pages": false,
    "forks_count": 0,
    "mirror_url": null,
    "archived": false,
    "disabled": false,
    "open_issues_count": 2,
    "license": null,
    "forks": 0,
    "open_issues": 2,
    "watchers": 1,
    "default_branch": "master"
  },
  {
    "id": 84156411,
    "node_id": "MDEwOlJlcG9zaXRvcnk4NDE1NjQxMQ==",
    "name": "university",
    "full_name": "p0licat/university",
    "private": false,
    "owner": {
      "login": "p0licat",
      "id": 7209449,
      "node_id": "MDQ6VXNlcjcyMDk0NDk=",
      "avatar_url": "https://avatars.githubusercontent.com/u/7209449?v=4",
      "gravatar_id": "",
      "url": "https://api.github.com/users/p0licat",
      "html_url": "https://github.com/p0licat",
      "followers_url": "https://api.github.com/users/p0licat/followers",
      "following_url": "https://api.github.com/users/p0licat/following{/other_user}",
      "gists_url": "https://api.github.com/users/p0licat/gists{/gist_id}",
      "starred_url": "https://api.github.com/users/p0licat/starred{/owner}{/repo}",
      "subscriptions_url": "https://api.github.com/users/p0licat/subscriptions",
      "organizations_url": "https://api.github.com/users/p0licat/orgs",
      "repos_url": "https://api.github.com/users/p0licat/repos",
      "events_url": "https://api.github.com/users/p0licat/events{/privacy}",
      "received_events_url": "https://api.github.com/users/p0licat/received_events",
      "type": "User",
      "site_admin": false
    },
    "html_url": "https://github.com/p0licat/university",
    "description": "Root folder for all computer science courses/ ",
    "fork": false,
    "url": "https://api.github.com/repos/p0licat/university",
    "forks_url": "https://api.github.com/repos/p0licat/university/forks",
    "keys_url": "https://api.github.com/repos/p0licat/university/keys{/key_id}",
    "collaborators_url": "https://api.github.com/repos/p0licat/university/collaborators{/collaborator}",
    "teams_url": "https://api.github.com/repos/p0licat/university/teams",
    "hooks_url": "https://api.github.com/repos/p0licat/university/hooks",
    "issue_events_url": "https://api.github.com/repos/p0licat/university/issues/events{/number}",
    "events_url": "https://api.github.com/repos/p0licat/university/events",
    "assignees_url": "https://api.github.com/repos/p0licat/university/assignees{/user}",
    "branches_url": "https://api.github.com/repos/p0licat/university/branches{/branch}",
    "tags_url": "https://api.github.com/repos/p0licat/university/tags",
    "blobs_url": "https://api.github.com/repos/p0licat/university/git/blobs{/sha}",
    "git_tags_url": "https://api.github.com/repos/p0licat/university/git/tags{/sha}",
    "git_refs_url": "https://api.github.com/repos/p0licat/university/git/refs{/sha}",
    "trees_url": "https://api.github.com/repos/p0licat/university/git/trees{/sha}",
    "statuses_url": "https://api.github.com/repos/p0licat/university/statuses/{sha}",
    "languages_url": "https://api.github.com/repos/p0licat/university/languages",
    "stargazers_url": "https://api.github.com/repos/p0licat/university/stargazers",
    "contributors_url": "https://api.github.com/repos/p0licat/university/contributors",
    "subscribers_url": "https://api.github.com/repos/p0licat/university/subscribers",
    "subscription_url": "https://api.github.com/repos/p0licat/university/subscription",
    "commits_url": "https://api.github.com/repos/p0licat/university/commits{/sha}",
    "git_commits_url": "https://api.github.com/repos/p0licat/university/git/commits{/sha}",
    "comments_url": "https://api.github.com/repos/p0licat/university/comments{/number}",
    "issue_comment_url": "https://api.github.com/repos/p0licat/university/issues/comments{/number}",
    "contents_url": "https://api.github.com/repos/p0licat/university/contents/{+path}",
    "compare_url": "https://api.github.com/repos/p0licat/university/compare/{base}...{head}",
    "merges_url": "https://api.github.com/repos/p0licat/university/merges",
    "archive_url": "https://api.github.com/repos/p0licat/university/{archive_format}{/ref}",
    "downloads_url": "https://api.github.com/repos/p0licat/university/downloads",
    "issues_url": "https://api.github.com/repos/p0licat/university/issues{/number}",
    "pulls_url": "https://api.github.com/repos/p0licat/university/pulls{/number}",
    "milestones_url": "https://api.github.com/repos/p0licat/university/milestones{/number}",
    "notifications_url": "https://api.github.com/repos/p0licat/university/notifications{?since,all,participating}",
    "labels_url": "https://api.github.com/repos/p0licat/university/labels{/name}",
    "releases_url": "https://api.github.com/repos/p0licat/university/releases{/id}",
    "deployments_url": "https://api.github.com/repos/p0licat/university/deployments",
    "created_at": "2017-03-07T04:55:59Z",
    "updated_at": "2021-01-24T22:44:24Z",
    "pushed_at": "2020-07-14T13:21:52Z",
    "git_url": "git://github.com/p0licat/university.git",
    "ssh_url": "git@github.com:p0licat/university.git",
    "clone_url": "https://github.com/p0licat/university.git",
    "svn_url": "https://github.com/p0licat/university",
    "homepage": null,
    "size": 12565,
    "stargazers_count": 2,
    "watchers_count": 2,
    "language": "Jupyter Notebook",
    "has_issues": true,
    "has_projects": true,
    "has_downloads": true,
    "has_wiki": true,
    "has_pages": false,
    "forks_count": 0,
    "mirror_url": null,
    "archived": false,
    "disabled": false,
    "open_issues_count": 0,
    "license": {
      "key": "mit",
      "name": "MIT License",
      "spdx_id": "MIT",
      "url": "https://api.github.com/licenses/mit",
      "node_id": "MDc6TGljZW5zZTEz"
    },
    "forks": 0,
    "open_issues": 0,
    "watchers": 2,
    "default_branch": "master"
  },
  {
    "id": 193053328,
    "node_id": "MDEwOlJlcG9zaXRvcnkxOTMwNTMzMjg=",
    "name": "wikiparser",
    "full_name": "p0licat/wikiparser",
    "private": false,
    "owner": {
      "login": "p0licat",
      "id": 7209449,
      "node_id": "MDQ6VXNlcjcyMDk0NDk=",
      "avatar_url": "https://avatars.githubusercontent.com/u/7209449?v=4",
      "gravatar_id": "",
      "url": "https://api.github.com/users/p0licat",
      "html_url": "https://github.com/p0licat",
      "followers_url": "https://api.github.com/users/p0licat/followers",
      "following_url": "https://api.github.com/users/p0licat/following{/other_user}",
      "gists_url": "https://api.github.com/users/p0licat/gists{/gist_id}",
      "starred_url": "https://api.github.com/users/p0licat/starred{/owner}{/repo}",
      "subscriptions_url": "https://api.github.com/users/p0licat/subscriptions",
      "organizations_url": "https://api.github.com/users/p0licat/orgs",
      "repos_url": "https://api.github.com/users/p0licat/repos",
      "events_url": "https://api.github.com/users/p0licat/events{/privacy}",
      "received_events_url": "https://api.github.com/users/p0licat/received_events",
      "type": "User",
      "site_admin": false
    },
    "html_url": "https://github.com/p0licat/wikiparser",
    "description": "Analyzer for local wiki articles.",
    "fork": false,
    "url": "https://api.github.com/repos/p0licat/wikiparser",
    "forks_url": "https://api.github.com/repos/p0licat/wikiparser/forks",
    "keys_url": "https://api.github.com/repos/p0licat/wikiparser/keys{/key_id}",
    "collaborators_url": "https://api.github.com/repos/p0licat/wikiparser/collaborators{/collaborator}",
    "teams_url": "https://api.github.com/repos/p0licat/wikiparser/teams",
    "hooks_url": "https://api.github.com/repos/p0licat/wikiparser/hooks",
    "issue_events_url": "https://api.github.com/repos/p0licat/wikiparser/issues/events{/number}",
    "events_url": "https://api.github.com/repos/p0licat/wikiparser/events",
    "assignees_url": "https://api.github.com/repos/p0licat/wikiparser/assignees{/user}",
    "branches_url": "https://api.github.com/repos/p0licat/wikiparser/branches{/branch}",
    "tags_url": "https://api.github.com/repos/p0licat/wikiparser/tags",
    "blobs_url": "https://api.github.com/repos/p0licat/wikiparser/git/blobs{/sha}",
    "git_tags_url": "https://api.github.com/repos/p0licat/wikiparser/git/tags{/sha}",
    "git_refs_url": "https://api.github.com/repos/p0licat/wikiparser/git/refs{/sha}",
    "trees_url": "https://api.github.com/repos/p0licat/wikiparser/git/trees{/sha}",
    "statuses_url": "https://api.github.com/repos/p0licat/wikiparser/statuses/{sha}",
    "languages_url": "https://api.github.com/repos/p0licat/wikiparser/languages",
    "stargazers_url": "https://api.github.com/repos/p0licat/wikiparser/stargazers",
    "contributors_url": "https://api.github.com/repos/p0licat/wikiparser/contributors",
    "subscribers_url": "https://api.github.com/repos/p0licat/wikiparser/subscribers",
    "subscription_url": "https://api.github.com/repos/p0licat/wikiparser/subscription",
    "commits_url": "https://api.github.com/repos/p0licat/wikiparser/commits{/sha}",
    "git_commits_url": "https://api.github.com/repos/p0licat/wikiparser/git/commits{/sha}",
    "comments_url": "https://api.github.com/repos/p0licat/wikiparser/comments{/number}",
    "issue_comment_url": "https://api.github.com/repos/p0licat/wikiparser/issues/comments{/number}",
    "contents_url": "https://api.github.com/repos/p0licat/wikiparser/contents/{+path}",
    "compare_url": "https://api.github.com/repos/p0licat/wikiparser/compare/{base}...{head}",
    "merges_url": "https://api.github.com/repos/p0licat/wikiparser/merges",
    "archive_url": "https://api.github.com/repos/p0licat/wikiparser/{archive_format}{/ref}",
    "downloads_url": "https://api.github.com/repos/p0licat/wikiparser/downloads",
    "issues_url": "https://api.github.com/repos/p0licat/wikiparser/issues{/number}",
    "pulls_url": "https://api.github.com/repos/p0licat/wikiparser/pulls{/number}",
    "milestones_url": "https://api.github.com/repos/p0licat/wikiparser/milestones{/number}",
    "notifications_url": "https://api.github.com/repos/p0licat/wikiparser/notifications{?since,all,participating}",
    "labels_url": "https://api.github.com/repos/p0licat/wikiparser/labels{/name}",
    "releases_url": "https://api.github.com/repos/p0licat/wikiparser/releases{/id}",
    "deployments_url": "https://api.github.com/repos/p0licat/wikiparser/deployments",
    "created_at": "2019-06-21T07:35:48Z",
    "updated_at": "2019-08-31T13:58:50Z",
    "pushed_at": "2019-08-31T13:58:48Z",
    "git_url": "git://github.com/p0licat/wikiparser.git",
    "ssh_url": "git@github.com:p0licat/wikiparser.git",
    "clone_url": "https://github.com/p0licat/wikiparser.git",
    "svn_url": "https://github.com/p0licat/wikiparser",
    "homepage": null,
    "size": 5633,
    "stargazers_count": 1,
    "watchers_count": 1,
    "language": "Python",
    "has_issues": true,
    "has_projects": true,
    "has_downloads": true,
    "has_wiki": true,
    "has_pages": false,
    "forks_count": 0,
    "mirror_url": null,
    "archived": false,
    "disabled": false,
    "open_issues_count": 1,
    "license": {
      "key": "gpl-3.0",
      "name": "GNU General Public License v3.0",
      "spdx_id": "GPL-3.0",
      "url": "https://api.github.com/licenses/gpl-3.0",
      "node_id": "MDc6TGljZW5zZTk="
    },
    "forks": 0,
    "open_issues": 1,
    "watchers": 1,
    "default_branch": "master"
  }
]
